# local_slope() returns expected values

    Code
      slp$slopes
    Output
      # A tibble: 996,000 x 4
              x2 .draw slope smooth
           <dbl> <dbl> <dbl>  <dbl>
       1 0.00234     1  77.6  -6.40
       2 0.00234     2  52.3  -4.56
       3 0.00234     3  68.0  -4.80
       4 0.00234     4  73.8  -5.27
       5 0.00234     5  80.0  -5.94
       6 0.00234     6  88.8  -6.22
       7 0.00234     7  56.1  -4.56
       8 0.00234     8  42.8  -4.04
       9 0.00234     9  50.4  -4.21
      10 0.00234    10  54.7  -4.91
      # i 995,990 more rows

---

    Code
      slp$slopes2
    Output
      # A tibble: 2,754,000 x 5
         g         x2 .draw slope smooth
         <chr>  <dbl> <dbl> <dbl>  <dbl>
       1 a     0.0774     1  54.5 -1.74 
       2 a     0.0774     2  65.1 -2.25 
       3 a     0.0774     3  98.1 -3.44 
       4 a     0.0774     4 114.  -3.83 
       5 a     0.0774     5  15.7  1.14 
       6 a     0.0774     6  38.4  0.346
       7 a     0.0774     7  34.4  0.230
       8 a     0.0774     8  66.9 -0.916
       9 a     0.0774     9  57.9 -1.43 
      10 a     0.0774    10  67.7 -0.783
      # i 2,753,990 more rows
